…
## Using fct\_count() function

``` r
fct_count(fulldata$major1)
```

    ## # A tibble: 26 x 2
    ##    f                           n
    ##    <fct>                   <int>
    ##  1 Anthropology                1
    ##  2 Art                         2
    ##  3 Art History                 1
    ##  4 Biological Sciences        89
    ##  5 Biology/Education           1
    ##  6 Business Administration     1
    ##  7 Business Economics          1
    ##  8 Computer Game Science       6
    ##  9 Computer Science            5
    ## 10 Dance                       3
    ## # … with 16 more rows
…
``` r
fulldata$major_recode <- as.character(fulldata$major1)
fct_count(fct_infreq(fulldata$major_recode))
```

    ## # A tibble: 26 x 2
    ##    f                                  n
    ##    <fct>                          <int>
    ##  1 Biological Sciences               89
    ##  2 Pharmaceutical Sciences           21
    ##  3 Computer Game Science              6
    ##  4 Public Health Sciences             6
    ##  5 Computer Science                   5
    ##  6 Dance                              3
    ##  7 Psychology                         3
    ##  8 Psychology and Social Behavior     3
    ##  9 Undeclared                         3
    ## 10 Art                                2
    ## # … with 16 more rows
…
